keyboard/simulation/qsim/keyboard.msim.vcd
$comment
	File created using the following command:
		vcd file keyboard.msim.vcd -direction
$end
$date
	Fri Jun 22 15:03:22 2018
$end
$version
	ModelSim Version 10.1d
$end
$timescale
	1ps
$end
$scope module RingCounter_vlg_vec_tst $end
$var reg 1 ! CLK $end
$var wire 1 " Q0 $end
$var wire 1 # Q1 $end
$var wire 1 $ Q2 $end
$var wire 1 % Q3 $end
$var wire 1 & sampler $end
$scope module i1 $end
$var wire 1 ' gnd $end
$var wire 1 ( vcc $end
$var wire 1 ) unknown $end
$var tri1 1 * devclrn $end
$var tri1 1 + devpor $end
$var tri1 1 , devoe $end
$var wire 1 - CLK~combout $end
$var wire 1 . CLK~clkctrl_outclk $end
$var wire 1 / inst1~0_combout $end
$var wire 1 0 inst1~regout $end
$var wire 1 1 inst2~feeder_combout $end
$var wire 1 2 inst2~regout $end
$var wire 1 3 inst3~feeder_combout $end
$var wire 1 4 inst3~regout $end
$var wire 1 5 inst~0_combout $end
$var wire 1 6 inst4~0_combout $end
$var wire 1 7 inst~regout $end
$upscope $end
$upscope $end
$enddefinitions $end
#0
$dumpvars
1!
x"
x#
x$
x%
x&
0'
1(
x)
1*
1+
1,
1-
x.
x/
00
x1
02
x3
04
x5
x6
x7
$end
#118
1.
#218
07
#462
15
#465
01
#467
06
#469
03
#819
1/
#3161
0$
#3184
0%
#3195
0#
#3382
1"
#10000
0!
0&
#10999
0-
#11117
0.
#20000
1!
1&
#20999
1-
#21117
1.
#22920
10
17
#23385
11
#23521
0/
#26084
0"
#26115
1#
#30000
0!
0&
#30999
0-
#31117
0.
#40000
1!
1&
#40999
1-
#41117
1.
#42920
00
12
#43385
01
#43389
13
#46081
1$
#46115
0#
#50000
0!
0&
#50999
0-
#51117
0.
#60000
1!
1&
#60999
1-
#61117
1.
#62920
02
14
#63382
05
#63389
03
#66081
0$
#66104
1%
#70000
0!
0&
#70999
0-
