keyboard/simulation/qsim/keyboard.msim.vcd
$comment
	File created using the following command:
		vcd file keyboard.msim.vcd -direction
$end
$date
	Fri Jun 22 13:42:16 2018
$end
$version
	ModelSim Version 10.1d
$end
$timescale
	1ps
$end
$scope module RingCounter_vlg_vec_tst $end
$var reg 1 ! CLK $end
$var wire 1 " Q0 $end
$var wire 1 # Q1 $end
$var wire 1 $ Q2 $end
$var wire 1 % Q3 $end
$var wire 1 & sampler $end
$scope module i1 $end
$var wire 1 ' gnd $end
$var wire 1 ( vcc $end
$var wire 1 ) unknown $end
$var tri1 1 * devclrn $end
$var tri1 1 + devpor $end
$var tri1 1 , devoe $end
$upscope $end
$upscope $end
$enddefinitions $end
#0
$dumpvars
0!
0"
0#
0$
0%
x&
0'
1(
x)
1*
1+
1,
$end
#20000
1!
0&
#40000
0!
1&
#60000
1!
0&
#80000
0!
1&
#100000
1!
0&
#120000
0!
1&
#140000
1!
0&
#160000
0!
1&
#180000
1!
0&
#200000
0!
1&
#220000
1!
0&
#240000
0!
1&
#260000
1!
0&
#280000
0!
1&
#300000
1!
0&
#320000
0!
1&
#340000
1!
0&
#360000
0!
1&
#380000
1!
0&
#400000
0!
1&
#420000
1!
0&
#440000
0!
1&
#460000
1!
0&
#480000
0!
1&
#500000
1!
0&
#520000
0!
1&
#540000
1!
0&
#560000
0!
1&
#580000
1!
0&
#600000
0!
1&
#620000
1!
0&
#640000
0!
1&
#660000
1!
0&
#680000
0!
1&
#700000
1!
0&
#720000
0!
1&
#740000
1!
0&
#760000
0!
1&
#780000
1!
0&
#800000
0!
1&
#820000
1!
0&
#840000
0!
1&
#860000
1!
0&
#880000
0!
1&
#900000
1!
0&
#920000
0!
1&
#940000
1!
0&
#960000
0!
1&
#980000
1!
0&
