ula/simulation/qsim/ula.msim.vcd
$comment
	File created using the following command:
		vcd file ula.msim.vcd -direction
$end
$date
	Thu May 24 12:24:28 2018
$end
$version
	ModelSim Version 10.1d
$end
$timescale
	1ps
$end
$scope module SumSub_vlg_vec_tst $end
$var reg 4 ! A [3:0] $end
$var reg 4 " B [3:0] $end
$var reg 1 # PLUSMINUS $end
$var wire 1 $ S [3] $end
$var wire 1 % S [2] $end
$var wire 1 & S [1] $end
$var wire 1 ' S [0] $end
$var wire 1 ( sampler $end
$scope module i1 $end
$var wire 1 ) gnd $end
$var wire 1 * vcc $end
$var wire 1 + unknown $end
$var tri1 1 , devclrn $end
$var tri1 1 - devpor $end
$var tri1 1 . devoe $end
$var wire 1 / PLUSMINUS~combout $end
$var wire 1 0 inst1|inst3~combout $end
$var wire 1 1 inst|inst1~combout $end
$var wire 1 2 inst1|inst1~combout $end
$var wire 1 3 inst2|inst1~combout $end
$var wire 1 4 inst3|inst1~combout $end
$var wire 1 5 A~combout [3] $end
$var wire 1 6 A~combout [2] $end
$var wire 1 7 A~combout [1] $end
$var wire 1 8 A~combout [0] $end
$upscope $end
$upscope $end
$enddefinitions $end
#0
$dumpvars
b0 !
b0 "
0#
0'
0&
0%
0$
x(
0)
1*
x+
1,
1-
1.
0/
00
01
02
03
04
08
07
06
05
$end
#10000
b1 !
18
0(
14
1'
#20000
b11 !
b1 "
b10 !
08
17
1(
04
13
0'
1&
#30000
b11 !
18
0(
14
1'
#40000
b111 !
b11 "
b101 !
b10 "
b100 !
08
07
16
1(
04
03
12
0'
0&
1%
#50000
b101 !
18
0(
14
1'
#60000
b111 !
b11 "
b110 !
08
17
1(
04
13
0'
1&
#70000
b111 !
18
0(
14
1'
#80000
b1111 !
b111 "
b1011 !
b101 "
b1001 !
b100 "
b1000 !
08
07
06
15
1(
04
03
02
11
0'
0&
0%
1$
#90000
b1001 !
18
0(
14
1'
#100000
b1011 !
b101 "
b1010 !
08
17
1(
04
13
0'
1&
#110000
b1011 !
18
0(
14
1'
#120000
b1111 !
b111 "
b1101 !
b110 "
b1100 !
08
07
16
1(
04
03
12
0'
0&
1%
#130000
b1101 !
18
0(
14
1'
#140000
b1111 !
b111 "
b1110 !
08
17
1(
04
13
0'
1&
#150000
b1111 !
18
0(
14
1'
#160000
b1111 "
1#
b111 !
b1011 "
b11 !
b1001 "
b1 !
b1000 "
b0 !
1/
08
07
06
05
1(
03
02
01
0&
0%
0$
#170000
b1 !
18
0(
04
13
0'
1&
#180000
b11 !
b1001 "
b10 !
08
17
1(
14
1'
#190000
b11 !
18
0(
04
03
12
0'
0&
1%
#200000
b111 !
b1011 "
b101 !
b1010 "
b100 !
08
07
16
1(
14
1'
#210000
b101 !
18
0(
04
13
0'
1&
#220000
b111 !
b1011 "
b110 !
08
17
1(
14
1'
#230000
b111 !
18
0(
04
03
02
10
11
0'
0&
0%
1$
#240000
b1111 !
b1111 "
b1011 !
b1101 "
b1001 !
b1100 "
b1000 !
08
07
06
15
1(
14
00
01
11
1'
0$
1$
#250000
b1001 !
18
0(
04
13
0'
1&
#260000
b1011 !
b1101 "
b1010 !
08
17
1(
14
1'
#270000
b1011 !
18
0(
04
03
12
0'
0&
1%
#280000
b1111 !
b1111 "
b1101 !
b1110 "
b1100 !
08
07
16
1(
14
1'
#290000
b1101 !
18
0(
04
13
0'
1&
#300000
b1111 !
b1111 "
b1110 !
08
17
1(
14
1'
#310000
b1111 !
18
0(
04
03
02
10
01
0'
0&
0%
0$
